Assignment 5
…
1 Display how many buildings there are in each city. Arrange the data in descending order of number of buildings.

citycounts=tallb%>%group_by(City)%>%summarize(number=length(City))
citycounts

## # A tibble: 38 x 2
##               City number
##              <chr>  <int>
##  1  Abu Dhabi(AE)      4
##  2    Atlanta(US)      1
##  3    Bangkok(TH)      2
##  4    Beijing(CN)      1
##  5    Chicago(US)      6
##  6  Chongqing(CN)      1
##  7     Dalian(CN)      1
##  8      Dubai(AE)     18
##  9 Gold Coast(AU)      1
## 10  Guangzhou(CN)      6
## # ... with 28 more rows
…
2. Plot different cities in order of the mean height of buildings

meanb=tallb%>%group_by(City)%>%summarize(number=mean(`Height (ft)`))
meanb

## # A tibble: 38 x 2
##               City   number
##              <chr>    <dbl>
##  1  Abu Dhabi(AE) 1109.500
##  2    Atlanta(US) 1023.000
##  3    Bangkok(TH) 1014.000
##  4    Beijing(CN) 1083.000
##  5    Chicago(US) 1184.333
##  6  Chongqing(CN) 1112.000
##  7     Dalian(CN) 1257.000
##  8      Dubai(AE) 1211.111
##  9 Gold Coast(AU) 1058.000
## 10  Guangzhou(CN) 1148.500
## # ... with 28 more rows
…
3. Plot how many buildings are in each country

Country=separate(data = tallb,col=City, into =c("City","Country"), sep ="\\(")
CCountry=separate(data = Country,col=Country, into =c("Country",NA), sep ="\\)")
CCountry

## # A tibble: 100 x 11
##     Rank                 `Building Name`           City Country  `NA`
##  * <dbl>                           <chr>          <chr>   <chr> <chr>
##  1     1                    Burj Khalifa         Dubai      AE      
##  2     2                  Shanghai Tower      Shanghai      CN      
##  3     3        Makkah Royal Clock Tower         Mecca      SA      
##  4     4          One World Trade Center New York City      US      
##  5     5                      TAIPEI 101        Taipei      TW      
##  6     6 Shanghai World Financial Center      Shanghai      CN      
##  7     7   International Commerce Centre     Hong Kong      CN      
##  8     8           Petronas Twin Tower 1  Kuala Lumpur      MY      
##  9     8           Petronas Twin Tower 2  Kuala Lumpur      MY      
## 10    10                    Zifeng Tower       Nanjing      CN      
## # ... with 90 more rows, and 6 more variables: `Height (m)` <dbl>, `Height
## #   (ft)` <dbl>, Floors <dbl>, Completed <dbl>, Material <chr>, Use <chr>
…
6. Building purpose and corresponding mean height

tallb

## # A tibble: 100 x 9
##     Rank                 `Building Name`               City `Height (m)`
##    <dbl>                           <chr>              <chr>        <dbl>
##  1     1                    Burj Khalifa         Dubai(AE)        828.0
##  2     2                  Shanghai Tower      Shanghai(CN)        632.0
##  3     3        Makkah Royal Clock Tower         Mecca(SA)        601.0
##  4     4          One World Trade Center New York City(US)        541.3
##  5     5                      TAIPEI 101        Taipei(TW)        508.0
##  6     6 Shanghai World Financial Center      Shanghai(CN)        492.0
##  7     7   International Commerce Centre     Hong Kong(CN)        484.0
##  8     8           Petronas Twin Tower 1  Kuala Lumpur(MY)        451.9
##  9     8           Petronas Twin Tower 2  Kuala Lumpur(MY)        451.9
## 10    10                    Zifeng Tower       Nanjing(CN)        450.0
## # ... with 90 more rows, and 5 more variables: `Height (ft)` <dbl>,
## #   Floors <dbl>, Completed <dbl>, Material <chr>, Use <chr>
…
